main.py[LINE:123]# DEBUG [2017-04-28 23:24:05,460]  /home/andrei/Projects/Python/smartRMV/fi/basket_content.json: file was updated!!
main.py[LINE:133]# DEBUG [2017-04-28 23:24:05,460]  /home/andrei/Projects/Python/smartRMV/fi/other_info.json: file was updated!!
main.py[LINE:123]# DEBUG [2017-04-28 23:58:24,277]  /home/andrei/Projects/Python/smartRMV/fi/basket_content.json: file was updated!!
main.py[LINE:133]# DEBUG [2017-04-28 23:58:24,278]  /home/andrei/Projects/Python/smartRMV/fi/other_info.json: file was updated!!
main.py[LINE:123]# DEBUG [2017-04-28 23:58:29,531]  /home/andrei/Projects/Python/smartRMV/fi/basket_content.json: file was updated!!
main.py[LINE:133]# DEBUG [2017-04-28 23:58:29,531]  /home/andrei/Projects/Python/smartRMV/fi/other_info.json: file was updated!!
main.py[LINE:123]# DEBUG [2017-04-28 23:58:35,508]  /home/andrei/Projects/Python/smartRMV/fi/basket_content.json: file was updated!!
main.py[LINE:133]# DEBUG [2017-04-28 23:58:35,509]  /home/andrei/Projects/Python/smartRMV/fi/other_info.json: file was updated!!
main.py[LINE:123]# DEBUG [2017-04-28 23:58:45,961]  /home/andrei/Projects/Python/smartRMV/fi/basket_content.json: file was updated!!
main.py[LINE:133]# DEBUG [2017-04-28 23:58:45,962]  /home/andrei/Projects/Python/smartRMV/fi/other_info.json: file was updated!!
main.py[LINE:123]# DEBUG [2017-04-29 09:49:56,460]  /home/andrei/Projects/Python/smartRMV/fi/basket_content.json: file was updated!!
main.py[LINE:133]# DEBUG [2017-04-29 09:49:56,490]  /home/andrei/Projects/Python/smartRMV/fi/other_info.json: file was updated!!
main.py[LINE:123]# DEBUG [2017-04-29 10:09:46,396]  /home/andrei/Projects/Python/smartRMV/fi/basket_content.json: file was updated!!
main.py[LINE:133]# DEBUG [2017-04-29 10:09:46,396]  /home/andrei/Projects/Python/smartRMV/fi/other_info.json: file was updated!!
main.py[LINE:123]# DEBUG [2017-04-29 10:10:23,496]  /home/andrei/Projects/Python/smartRMV/fi/basket_content.json: file was updated!!
main.py[LINE:133]# DEBUG [2017-04-29 10:10:23,497]  /home/andrei/Projects/Python/smartRMV/fi/other_info.json: file was updated!!
main.py[LINE:123]# DEBUG [2017-04-29 10:11:41,525]  /home/andrei/Projects/Python/smartRMV/fi/basket_content.json: file was updated!!
main.py[LINE:133]# DEBUG [2017-04-29 10:11:41,526]  /home/andrei/Projects/Python/smartRMV/fi/other_info.json: file was updated!!
main.py[LINE:123]# DEBUG [2017-04-29 10:12:10,030]  /home/andrei/Projects/Python/smartRMV/fi/basket_content.json: file was updated!!
main.py[LINE:133]# DEBUG [2017-04-29 10:12:10,031]  /home/andrei/Projects/Python/smartRMV/fi/other_info.json: file was updated!!
main.py[LINE:123]# DEBUG [2017-04-29 10:13:04,272]  /home/andrei/Projects/Python/smartRMV/fi/basket_content.json: file was updated!!
main.py[LINE:133]# DEBUG [2017-04-29 10:13:04,272]  /home/andrei/Projects/Python/smartRMV/fi/other_info.json: file was updated!!
